{
  "data": {
    "data": [
      {
        "familyName": "Nguyen",
        "givenName": "An",
        "email": "an.nguyen@example.com",
        "phone": "0123456789",
        "sID": "S0001",
        "dob": "1980-01-01T00:00:00Z",
        "faculty": {
          "id": "F001",
          "createAt": "2000-01-01T00:00:00Z",
          "updateAt": "2023-07-01T00:00:00Z",
          "code": "ENG",
          "name": "Engineering",
          "unionDeptId": "D001"
        },
        "facultyId": "F001",
        "gender": "MALE",
        "isUnionMember": true,
        "uID": "U001",
        "workingStatus": "WORKING",
        "unionDept": {
          "id": "D001",
          "code": "DeptA",
          "name": "Union Department A",
          "createAt": "1990-01-01T00:00:00Z",
          "updateAt": "2023-07-01T00:00:00Z",
          "facultyCount": 5
        },
        "unionDeptId": "D001",
        "unionJoinDate": "2005-01-01T00:00:00Z",
        "numOfChildren": 2,
        "children": [
          { "familyName": "Nguyen", "givenName": "Child1", "dob": "2010-01-01T00:00:00Z", "gender": "MALE" },
          { "familyName": "Nguyen", "givenName": "Child2", "dob": "2012-01-01T00:00:00Z", "gender": "FEMALE" }
        ],
        "updateAt": "2023-07-01T00:00:00Z"
      },
      {
        "familyName": "Le",
        "givenName": "Binh",
        "email": "binh.le@example.com",
        "phone": "0123456790",
        "sID": "S0002",
        "dob": "1990-02-01T00:00:00Z",
        "faculty": {
          "id": "F002",
          "createAt": "2001-01-01T00:00:00Z",
          "updateAt": "2023-07-02T00:00:00Z",
          "code": "SCI",
          "name": "Science",
          "unionDeptId": "D002"
        },
        "facultyId": "F002",
        "gender": "FEMALE",
        "isUnionMember": false,
        "numOfChildren": 1,
        "children": [{ "familyName": "Le", "givenName": "Child1", "dob": "2015-02-01T00:00:00Z", "gender": "MALE" }],
        "updateAt": "2023-07-02T00:00:00Z"
      },
      {
        "familyName": "Tran",
        "givenName": "Cuong",
        "email": "cuong.tran@example.com",
        "phone": "0123456791",
        "sID": "S0003",
        "dob": "1985-03-01T00:00:00Z",
        "faculty": {
          "id": "F003",
          "createAt": "2002-01-01T00:00:00Z",
          "updateAt": "2023-07-03T00:00:00Z",
          "code": "BUS",
          "name": "Business",
          "unionDeptId": "D003"
        },
        "facultyId": "F003",
        "gender": "MALE",
        "isUnionMember": true,
        "uID": "U002",
        "workingStatus": "PART-TIME",
        "unionDept": {
          "id": "D003",
          "code": "DeptB",
          "name": "Union Department B",
          "createAt": "1991-01-01T00:00:00Z",
          "updateAt": "2023-07-03T00:00:00Z",
          "facultyCount": 3
        },
        "unionDeptId": "D003",
        "unionJoinDate": "2010-03-01T00:00:00Z",
        "numOfChildren": 3,
        "children": [
          { "familyName": "Tran", "givenName": "Child1", "dob": "2013-03-01T00:00:00Z", "gender": "FEMALE" },
          { "familyName": "Tran", "givenName": "Child2", "dob": "2015-03-01T00:00:00Z", "gender": "MALE" },
          { "familyName": "Tran", "givenName": "Child3", "dob": "2017-03-01T00:00:00Z", "gender": "FEMALE" }
        ],
        "updateAt": "2023-07-03T00:00:00Z"
      },
      {
        "familyName": "Pham",
        "givenName": "Dung",
        "email": "dung.pham@example.com",
        "phone": "0123456792",
        "sID": "S0004",
        "dob": "1995-04-01T00:00:00Z",
        "faculty": {
          "id": "F004",
          "createAt": "2003-01-01T00:00:00Z",
          "updateAt": "2023-07-04T00:00:00Z",
          "code": "LAW",
          "name": "Law",
          "unionDeptId": "D004"
        },
        "facultyId": "F004",
        "gender": "FEMALE",
        "isUnionMember": false,
        "numOfChildren": 0,
        "updateAt": "2023-07-04T00:00:00Z"
      },
      {
        "familyName": "Vo",
        "givenName": "E",
        "email": "e.vo@example.com",
        "phone": "0123456793",
        "sID": "S0005",
        "dob": "1987-05-01T00:00:00Z",
        "faculty": {
          "id": "F005",
          "createAt": "2004-01-01T00:00:00Z",
          "updateAt": "2023-07-05T00:00:00Z",
          "code": "MED",
          "name": "Medicine",
          "unionDeptId": "D005"
        },
        "facultyId": "F005",
        "gender": "MALE",
        "isUnionMember": true,
        "uID": "U003",
        "workingStatus": "WORKING",
        "unionDept": {
          "id": "D005",
          "code": "DeptC",
          "name": "Union Department C",
          "createAt": "1992-01-01T00:00:00Z",
          "updateAt": "2023-07-05T00:00:00Z",
          "facultyCount": 4
        },
        "unionDeptId": "D005",
        "unionJoinDate": "2015-05-01T00:00:00Z",
        "numOfChildren": 2,
        "children": [
          { "familyName": "Vo", "givenName": "Child1", "dob": "2018-05-01T00:00:00Z", "gender": "MALE" },
          { "familyName": "Vo", "givenName": "Child2", "dob": "2020-05-01T00:00:00Z", "gender": "FEMALE" }
        ],
        "updateAt": "2023-07-05T00:00:00Z"
      },
      {
        "familyName": "Hoang",
        "givenName": "Phuong",
        "email": "phuong.hoang@example.com",
        "phone": "0123456794",
        "sID": "S0006",
        "dob": "1989-06-01T00:00:00Z",
        "faculty": {
          "id": "F001",
          "createAt": "2005-01-01T00:00:00Z",
          "updateAt": "2023-07-06T00:00:00Z",
          "code": "ENG",
          "name": "Engineering",
          "unionDeptId": "D001"
        },
        "facultyId": "F001",
        "gender": "FEMALE",
        "isUnionMember": false,
        "numOfChildren": 1,
        "children": [
          { "familyName": "Hoang", "givenName": "Child1", "dob": "2017-06-01T00:00:00Z", "gender": "FEMALE" }
        ],
        "updateAt": "2023-07-06T00:00:00Z"
      },
      {
        "familyName": "Ly",
        "givenName": "G",
        "email": "g.ly@example.com",
        "phone": "0123456795",
        "sID": "S0007",
        "dob": "1991-07-01T00:00:00Z",
        "faculty": {
          "id": "F002",
          "createAt": "2006-01-01T00:00:00Z",
          "updateAt": "2023-07-07T00:00:00Z",
          "code": "SCI",
          "name": "Science",
          "unionDeptId": "D002"
        },
        "facultyId": "F002",
        "gender": "MALE",
        "isUnionMember": true,
        "uID": "U004",
        "workingStatus": "PART-TIME",
        "unionDept": {
          "id": "D004",
          "code": "DeptD",
          "name": "Union Department D",
          "createAt": "1993-01-01T00:00:00Z",
          "updateAt": "2023-07-07T00:00:00Z",
          "facultyCount": 6
        },
        "unionDeptId": "D004",
        "unionJoinDate": "2018-07-01T00:00:00Z",
        "numOfChildren": 0,
        "updateAt": "2023-07-07T00:00:00Z"
      },
      {
        "familyName": "Tran",
        "givenName": "H",
        "email": "h.tran@example.com",
        "phone": "0123456796",
        "sID": "S0008",
        "dob": "1993-08-01T00:00:00Z",
        "faculty": {
          "id": "F003",
          "createAt": "2007-01-01T00:00:00Z",
          "updateAt": "2023-07-08T00:00:00Z",
          "code": "BUS",
          "name": "Business",
          "unionDeptId": "D003"
        },
        "facultyId": "F003",
        "gender": "FEMALE",
        "isUnionMember": false,
        "numOfChildren": 2,
        "children": [
          { "familyName": "Tran", "givenName": "Child1", "dob": "2020-08-01T00:00:00Z", "gender": "MALE" },
          { "familyName": "Tran", "givenName": "Child2", "dob": "2022-08-01T00:00:00Z", "gender": "FEMALE" }
        ],
        "updateAt": "2023-07-08T00:00:00Z"
      },
      {
        "familyName": "Nguyen",
        "givenName": "I",
        "email": "i.nguyen@example.com",
        "phone": "0123456797",
        "sID": "S0009",
        "dob": "1992-09-01T00:00:00Z",
        "faculty": {
          "id": "F004",
          "createAt": "2008-01-01T00:00:00Z",
          "updateAt": "2023-07-09T00:00:00Z",
          "code": "LAW",
          "name": "Law",
          "unionDeptId": "D004"
        },
        "facultyId": "F004",
        "gender": "MALE",
        "isUnionMember": true,
        "uID": "U005",
        "workingStatus": "WORKING",
        "unionDept": {
          "id": "D005",
          "code": "DeptE",
          "name": "Union Department E",
          "createAt": "1994-01-01T00:00:00Z",
          "updateAt": "2023-07-09T00:00:00Z",
          "facultyCount": 7
        },
        "unionDeptId": "D005",
        "unionJoinDate": "2019-09-01T00:00:00Z",
        "numOfChildren": 1,
        "children": [
          { "familyName": "Nguyen", "givenName": "Child1", "dob": "2021-09-01T00:00:00Z", "gender": "MALE" }
        ],
        "updateAt": "2023-07-09T00:00:00Z"
      },
      {
        "familyName": "Pham",
        "givenName": "K",
        "email": "k.pham@example.com",
        "phone": "0123456798",
        "sID": "S0010",
        "dob": "1994-10-01T00:00:00Z",
        "faculty": {
          "id": "F005",
          "createAt": "2009-01-01T00:00:00Z",
          "updateAt": "2023-07-10T00:00:00Z",
          "code": "MED",
          "name": "Medicine",
          "unionDeptId": "D005"
        },
        "facultyId": "F005",
        "gender": "FEMALE",
        "isUnionMember": true,
        "uID": "U006",
        "workingStatus": "RESIGNATION",
        "unionDept": {
          "id": "D005",
          "code": "DeptC",
          "name": "Union Department C",
          "createAt": "1995-01-01T00:00:00Z",
          "updateAt": "2023-07-10T00:00:00Z",
          "facultyCount": 8
        },
        "unionDeptId": "D005",
        "unionJoinDate": "2020-10-01T00:00:00Z",
        "numOfChildren": 0,
        "updateAt": "2023-07-10T00:00:00Z"
      }
    ],
    "meta": {
      "totalItems": 20,
      "itemCount": 20,
      "itemsPerPage": 10,
      "totalPages": 2,
      "currentPage": 1
    }
  },
  "msg": "Success"
}
